# Created by FreeCAD <http://www.freecadweb.org>
v 1.000000 0.000000 -0.000000
v 79.000000 0.000000 3.000000
v 1.000000 0.000000 3.000000
v 79.000000 0.000000 -0.000000
v 17.213640 4.838192 -0.000000
v 62.572647 5.401711 -0.000000
v 62.786362 4.838192 -0.000000
v 17.427355 5.401711 -0.000000
v 15.886512 3.662459 -0.000000
v 64.698662 3.518228 -0.000000
v 15.301342 3.518228 -0.000000
v 13.128723 4.342193 -0.000000
v 13.579838 3.942540 -0.000000
v 64.113487 3.662459 -0.000000
v 12.786360 4.838192 -0.000000
v 14.113488 3.662459 -0.000000
v 17.500000 6.000000 -0.000000
v 62.500000 6.000000 -0.000000
v 12.572645 5.401711 -0.000000
v 14.698658 3.518228 -0.000000
v 12.500000 6.000000 -0.000000
v 17.427355 6.598289 -0.000000
v 62.572647 6.598289 -0.000000
v 12.572645 6.598289 -0.000000
v 17.213640 7.161808 -0.000000
v 62.786362 7.161808 -0.000000
v 12.786360 7.161808 -0.000000
v 16.871277 7.657807 -0.000000
v 63.128723 7.657807 -0.000000
v 13.128723 7.657807 -0.000000
v 15.886512 8.337541 -0.000000
v 63.579838 8.057460 -0.000000
v 16.420162 8.057460 -0.000000
v 13.579838 8.057460 -0.000000
v 64.113487 8.337541 -0.000000
v 66.420158 8.057460 -0.000000
v 66.871277 7.657807 -0.000000
v 67.213638 7.161808 -0.000000
v 67.427353 6.598289 -0.000000
v 67.500000 6.000000 -0.000000
v 67.427353 5.401711 -0.000000
v 67.213638 4.838192 -0.000000
v 66.871277 4.342193 -0.000000
v 66.420158 3.942540 -0.000000
v 65.886513 3.662459 -0.000000
v 65.301338 3.518228 -0.000000
v 1.000000 99.000000 -0.000000
v 14.113488 8.337541 -0.000000
v 14.698658 8.481772 -0.000000
v 15.301342 8.481772 -0.000000
v 16.871277 4.342193 -0.000000
v 63.579838 3.942540 -0.000000
v 16.420162 3.942540 -0.000000
v 79.000000 99.000000 -0.000000
v 64.698662 8.481772 -0.000000
v 65.301338 8.481772 -0.000000
v 65.886513 8.337541 -0.000000
v 63.128723 4.342193 -0.000000
v 0.829077 0.014716 2.985284
v 0.829077 0.014716 0.014716
v 0.663184 0.058429 2.941571
v 0.663184 0.058429 0.058429
v 0.507204 0.129855 2.870145
v 0.507204 0.129855 0.129855
v 0.365728 0.226890 2.773110
v 0.365728 0.226890 0.226890
v 0.242919 0.346678 2.653322
v 0.242919 0.346678 0.346678
v 0.142393 0.485695 0.485695
v 0.142393 0.485695 2.514305
v 0.048025 0.693823 0.693823
v 0.048025 0.693823 2.306177
v 0.012079 0.845040 0.845040
v 0.012079 0.845040 2.154960
v 0.000000 1.000000 1.000000
v 0.000000 1.000000 2.000000
v 79.170921 0.014716 0.014716
v 79.170921 0.014716 2.985284
v 79.336815 0.058429 0.058429
v 79.336815 0.058429 2.941571
v 79.492798 0.129855 0.129855
v 79.492798 0.129855 2.870145
v 79.634270 0.226890 0.226890
v 79.634270 0.226890 2.773110
v 79.757080 0.346678 0.346678
v 79.757080 0.346678 2.653322
v 79.857605 0.485695 0.485695
v 79.857605 0.485695 2.514305
v 79.951973 0.693823 0.693823
v 79.951973 0.693823 2.306177
v 79.987923 0.845040 0.845040
v 79.987923 0.845040 2.154960
v 80.000000 1.000000 1.000000
v 80.000000 1.000000 2.000000
v 62.572647 5.401711 3.000000
v 17.427355 5.401711 3.000000
v 17.213640 4.838192 3.000000
v 62.786362 4.838192 3.000000
v 64.698662 3.518228 3.000000
v 15.886512 3.662459 3.000000
v 15.301342 3.518228 3.000000
v 13.579838 3.942540 3.000000
v 13.128723 4.342193 3.000000
v 64.113487 3.662459 3.000000
v 12.786360 4.838192 3.000000
v 14.113488 3.662459 3.000000
v 62.500000 6.000000 3.000000
v 17.500000 6.000000 3.000000
v 12.572645 5.401711 3.000000
v 14.698658 3.518228 3.000000
v 12.500000 6.000000 3.000000
v 62.572647 6.598289 3.000000
v 17.427355 6.598289 3.000000
v 12.572645 6.598289 3.000000
v 62.786362 7.161808 3.000000
v 17.213640 7.161808 3.000000
v 12.786360 7.161808 3.000000
v 63.128723 7.657807 3.000000
v 16.871277 7.657807 3.000000
v 13.128723 7.657807 3.000000
v 63.579838 8.057460 3.000000
v 16.420162 8.057460 3.000000
v 13.579838 8.057460 3.000000
v 64.113487 8.337541 3.000000
v 15.886512 8.337541 3.000000
v 66.420158 8.057460 3.000000
v 66.871277 7.657807 3.000000
v 67.213638 7.161808 3.000000
v 67.427353 6.598289 3.000000
v 67.500000 6.000000 3.000000
v 67.427353 5.401711 3.000000
v 67.213638 4.838192 3.000000
v 66.871277 4.342193 3.000000
v 66.420158 3.942540 3.000000
v 65.886513 3.662459 3.000000
v 65.301338 3.518228 3.000000
v 1.000000 99.000000 3.000000
v 14.113488 8.337541 3.000000
v 14.698658 8.481772 3.000000
v 15.301342 8.481772 3.000000
v 63.128723 4.342193 3.000000
v 16.871277 4.342193 3.000000
v 79.000000 99.000000 3.000000
v 64.698662 8.481772 3.000000
v 65.301338 8.481772 3.000000
v 65.886513 8.337541 3.000000
v 63.579838 3.942540 3.000000
v 16.420162 3.942540 3.000000
v 0.000000 99.000000 1.000000
v 0.025072 99.000000 0.777479
v 0.099031 99.000000 0.566116
v 0.218169 99.000000 0.376510
v 0.376510 99.000000 0.218169
v 0.566116 99.000000 0.099031
v 0.777479 99.000000 0.025072
v 80.000000 99.000000 1.000000
v 79.974930 99.000000 0.777479
v 79.900970 99.000000 0.566116
v 79.781830 99.000000 0.376510
v 79.623489 99.000000 0.218169
v 79.433884 99.000000 0.099031
v 79.222519 99.000000 0.025072
v 1.000000 99.974930 0.777479
v 79.000000 100.000000 1.000000
v 79.000000 99.974930 0.777479
v 1.000000 100.000000 1.000000
v 1.000000 99.900970 0.566116
v 79.000000 99.900970 0.566116
v 1.000000 99.781830 0.376510
v 79.000000 99.781830 0.376510
v 1.000000 99.623489 0.218169
v 79.000000 99.623489 0.218169
v 1.000000 99.433884 0.099031
v 79.000000 99.433884 0.099031
v 1.000000 99.222519 0.025072
v 79.000000 99.222519 0.025072
v 16.420162 3.942540 -0.000000
v 15.886512 3.662459 -0.000000
v 15.301342 3.518228 -0.000000
v 12.572645 6.598289 -0.000000
v 12.572645 6.598289 3.000000
v 14.698658 3.518228 -0.000000
v 12.786360 7.161808 -0.000000
v 14.113488 3.662459 -0.000000
v 13.128723 7.657807 -0.000000
v 13.579838 3.942540 -0.000000
v 13.579838 3.942540 3.000000
v 13.579838 8.057460 -0.000000
v 13.579838 8.057460 3.000000
v 13.128723 4.342193 -0.000000
v 14.113488 8.337541 -0.000000
v 12.786360 4.838192 -0.000000
v 12.572645 5.401711 -0.000000
v 12.572645 5.401711 3.000000
v 14.698658 8.481772 -0.000000
v 15.301342 8.481772 -0.000000
v 15.886512 8.337541 -0.000000
v 16.420162 8.057460 -0.000000
v 16.871277 7.657807 -0.000000
v 17.213640 7.161808 -0.000000
v 17.427355 6.598289 -0.000000
v 17.427355 6.598289 3.000000
v 17.500000 6.000000 -0.000000
v 17.500000 6.000000 3.000000
v 17.427355 5.401711 -0.000000
v 17.427355 5.401711 3.000000
v 17.213640 4.838192 -0.000000
v 16.871277 4.342193 -0.000000
v 0.000000 99.000000 2.000000
v 0.025072 99.000000 2.222521
v 0.099031 99.000000 2.433884
v 0.218169 99.000000 2.623490
v 0.376510 99.000000 2.781832
v 0.566116 99.000000 2.900969
v 0.777479 99.000000 2.974928
v 80.000000 99.000000 2.000000
v 79.974930 99.000000 2.222521
v 79.900970 99.000000 2.433884
v 79.781830 99.000000 2.623490
v 79.623489 99.000000 2.781832
v 79.433884 99.000000 2.900969
v 79.222519 99.000000 2.974928
v 79.000000 100.000000 2.000000
v 1.000000 99.974930 2.222521
v 79.000000 99.974930 2.222521
v 1.000000 100.000000 2.000000
v 1.000000 99.900970 2.433884
v 79.000000 99.900970 2.433884
v 1.000000 99.781830 2.623490
v 79.000000 99.781830 2.623490
v 1.000000 99.623489 2.781832
v 79.000000 99.623489 2.781832
v 1.000000 99.433884 2.900969
v 79.000000 99.433884 2.900969
v 1.000000 99.222519 2.974928
v 79.000000 99.222519 2.974928
v 0.427939 99.572060 0.412215
v 0.632714 99.720840 0.412215
v 0.654508 99.475525 0.190983
v 0.706107 99.904510 0.690983
v 0.566116 99.900970 1.000000
v 0.777479 99.974930 1.000000
v 0.873442 99.799057 0.412215
v 0.279161 99.367287 0.412215
v 0.524472 99.345490 0.190983
v 0.440983 99.181633 0.190983
v 0.440983 99.769424 0.690983
v 0.376510 99.781830 1.000000
v 0.200943 99.126556 0.412215
v 0.230579 99.559013 0.690983
v 0.218169 99.623489 1.000000
v 0.099031 99.433884 1.000000
v 0.095492 99.293892 0.690983
v 0.025072 99.222519 1.000000
v 0.951659 99.305214 0.048943
v 0.859709 99.275337 0.048943
v 0.781492 99.218506 0.048943
v 0.818364 99.559013 0.190983
v 0.724664 99.140289 0.048943
v 0.694788 99.048340 0.048943
v 79.367287 99.720840 0.412215
v 79.572060 99.572060 0.412215
v 79.345490 99.475525 0.190983
v 79.293892 99.904510 0.690983
v 79.433884 99.900970 1.000000
v 79.222519 99.974930 1.000000
v 79.126556 99.799057 0.412215
v 79.475525 99.345490 0.190983
v 79.720840 99.367287 0.412215
v 79.559013 99.181633 0.190983
v 79.623489 99.781830 1.000000
v 79.559013 99.769424 0.690983
v 79.799057 99.126556 0.412215
v 79.781830 99.623489 1.000000
v 79.769424 99.559013 0.690983
v 79.900970 99.433884 1.000000
v 79.904510 99.293892 0.690983
v 79.974930 99.222519 1.000000
v 79.048340 99.305214 0.048943
v 79.140289 99.275337 0.048943
v 79.218506 99.218506 0.048943
v 79.181633 99.559013 0.190983
v 79.275337 99.140289 0.048943
v 79.305214 99.048340 0.048943
v 0.777479 99.974930 2.000000
v 0.566116 99.900970 2.000000
v 0.376510 99.781830 2.000000
v 0.218169 99.623489 2.000000
v 0.099031 99.433884 2.000000
v 0.025072 99.222519 2.000000
v 0.632714 99.720840 2.587785
v 0.427939 99.572060 2.587785
v 0.654508 99.475525 2.809017
v 0.706107 99.904510 2.309017
v 0.873442 99.799057 2.587785
v 0.524472 99.345490 2.809017
v 0.279161 99.367287 2.587785
v 0.440983 99.181633 2.809017
v 0.440983 99.769424 2.309017
v 0.200943 99.126556 2.587785
v 0.230579 99.559013 2.309017
v 0.095492 99.293892 2.309017
v 0.951659 99.305214 2.951056
v 0.859709 99.275337 2.951056
v 0.781492 99.218506 2.951056
v 0.818364 99.559013 2.809017
v 0.724664 99.140289 2.951056
v 0.694788 99.048340 2.951056
v 79.974930 99.222519 2.000000
v 79.900970 99.433884 2.000000
v 79.781830 99.623489 2.000000
v 79.623489 99.781830 2.000000
v 79.433884 99.900970 2.000000
v 79.222519 99.974930 2.000000
v 79.572060 99.572060 2.587785
v 79.367287 99.720840 2.587785
v 79.345490 99.475525 2.809017
v 79.293892 99.904510 2.309017
v 79.126556 99.799057 2.587785
v 79.720840 99.367287 2.587785
v 79.475525 99.345490 2.809017
v 79.559013 99.181633 2.809017
v 79.559013 99.769424 2.309017
v 79.799057 99.126556 2.587785
v 79.769424 99.559013 2.309017
v 79.904510 99.293892 2.309017
v 79.048340 99.305214 2.951056
v 79.140289 99.275337 2.951056
v 79.218506 99.218506 2.951056
v 79.181633 99.559013 2.809017
v 79.275337 99.140289 2.951056
v 79.305214 99.048340 2.951056
vn 0.000000 -1.000000 0.000000
vn 0.000000 -1.000000 0.000000
vn 0.000000 0.000000 -1.000000
vn 0.000000 -0.000000 -1.000000
vn 0.000000 -0.000000 -1.000000
vn 0.000000 0.000000 -1.000000
vn 0.000000 -0.000000 -1.000000
vn 0.000000 0.000000 -1.000000
vn 0.000000 0.000000 -1.000000
vn 0.000000 0.000000 -1.000000
vn 0.000000 -0.000000 -1.000000
vn 0.000000 -0.000000 -1.000000
vn 0.000000 0.000000 -1.000000
vn -0.000000 0.000000 -1.000000
vn -0.000000 0.000000 -1.000000
vn 0.000000 0.000000 -1.000000
vn 0.000000 -0.000000 -1.000000
vn 0.000000 -0.000000 -1.000000
vn 0.000000 -0.000000 -1.000000
vn 0.000000 0.000000 -1.000000
vn 0.000000 -0.000000 -1.000000
vn -0.000000 0.000000 -1.000000
vn 0.000000 0.000000 -1.000000
vn 0.000000 -0.000000 -1.000000
vn 0.000000 -0.000000 -1.000000
vn 0.000000 0.000000 -1.000000
vn 0.000000 0.000000 -1.000000
vn 0.000000 -0.000000 -1.000000
vn 0.000000 -0.000000 -1.000000
vn 0.000000 -0.000000 -1.000000
vn 0.000000 -0.000000 -1.000000
vn 0.000000 0.000000 -1.000000
vn 0.000000 0.000000 -1.000000
vn 0.000000 0.000000 -1.000000
vn 0.000000 0.000000 -1.000000
vn 0.000000 -0.000000 -1.000000
vn 0.000000 -0.000000 -1.000000
vn 0.000000 -0.000000 -1.000000
vn 0.000000 -0.000000 -1.000000
vn 0.000000 -0.000000 -1.000000
vn 0.000000 -0.000000 -1.000000
vn -0.000000 -0.000000 -1.000000
vn 0.000000 -0.000000 -1.000000
vn -0.000000 -0.000000 -1.000000
vn 0.000000 0.000000 -1.000000
vn 0.000000 0.000000 -1.000000
vn 0.000000 0.000000 -1.000000
vn 0.000000 -0.000000 -1.000000
vn 0.000000 0.000000 -1.000000
vn 0.000000 0.000000 -1.000000
vn -0.000000 0.000000 -1.000000
vn 0.000000 0.000000 -1.000000
vn 0.000000 0.000000 -1.000000
vn 0.000000 0.000000 -1.000000
vn 0.000000 0.000000 -1.000000
vn 0.000000 0.000000 -1.000000
vn 0.000000 -0.000000 -1.000000
vn 0.000000 0.000000 -1.000000
vn 0.000000 0.000000 -1.000000
vn 0.000000 -0.000000 -1.000000
vn -0.085778 -0.996314 0.000000
vn -0.085778 -0.996314 -0.000000
vn -0.254809 -0.966991 0.000000
vn -0.254809 -0.966991 -0.000000
vn -0.416340 -0.909209 0.000000
vn -0.416340 -0.909209 -0.000000
vn -0.565619 -0.824667 0.000000
vn -0.565619 -0.824667 -0.000000
vn -0.698250 -0.715854 0.000000
vn -0.810331 -0.585973 0.000000
vn -0.698250 -0.715854 -0.000000
vn -0.910756 -0.412946 0.000000
vn -0.810331 -0.585973 0.000000
vn -0.972890 -0.231268 0.000000
vn -0.910756 -0.412946 0.000000
vn -0.996976 -0.077715 0.000000
vn -0.972890 -0.231268 0.000000
vn -0.996976 -0.077715 0.000000
vn 0.085779 -0.996314 0.000000
vn 0.254807 -0.966992 0.000000
vn 0.085779 -0.996314 0.000000
vn 0.416333 -0.909212 0.000000
vn 0.254807 -0.966992 0.000000
vn 0.565630 -0.824659 0.000000
vn 0.416333 -0.909212 0.000000
vn 0.698245 -0.715859 0.000000
vn 0.565630 -0.824659 0.000000
vn 0.810336 -0.585965 0.000000
vn 0.698245 -0.715859 0.000000
vn 0.910754 -0.412949 0.000000
vn 0.810336 -0.585965 0.000000
vn 0.972885 -0.231290 0.000000
vn 0.910754 -0.412949 0.000000
vn 0.996977 -0.077703 0.000000
vn 0.972885 -0.231290 0.000000
vn 0.996977 -0.077703 0.000000
vn 0.000000 0.000000 1.000000
vn 0.000000 0.000000 1.000000
vn 0.000000 0.000000 1.000000
vn 0.000000 0.000000 1.000000
vn 0.000000 0.000000 1.000000
vn 0.000000 0.000000 1.000000
vn 0.000000 0.000000 1.000000
vn 0.000000 0.000000 1.000000
vn 0.000000 0.000000 1.000000
vn 0.000000 0.000000 1.000000
vn 0.000000 0.000000 1.000000
vn 0.000000 0.000000 1.000000
vn 0.000000 0.000000 1.000000
vn 0.000000 0.000000 1.000000
vn 0.000000 0.000000 1.000000
vn 0.000000 0.000000 1.000000
vn 0.000000 0.000000 1.000000
vn 0.000000 0.000000 1.000000
vn 0.000000 0.000000 1.000000
vn 0.000000 0.000000 1.000000
vn 0.000000 0.000000 1.000000
vn 0.000000 0.000000 1.000000
vn 0.000000 0.000000 1.000000
vn 0.000000 0.000000 1.000000
vn 0.000000 0.000000 1.000000
vn 0.000000 0.000000 1.000000
vn 0.000000 0.000000 1.000000
vn 0.000000 0.000000 1.000000
vn 0.000000 0.000000 1.000000
vn 0.000000 0.000000 1.000000
vn 0.000000 0.000000 1.000000
vn 0.000000 0.000000 1.000000
vn 0.000000 0.000000 1.000000
vn 0.000000 0.000000 1.000000
vn 0.000000 0.000000 1.000000
vn 0.000000 0.000000 1.000000
vn 0.000000 0.000000 1.000000
vn 0.000000 0.000000 1.000000
vn 0.000000 0.000000 1.000000
vn 0.000000 0.000000 1.000000
vn 0.000000 0.000000 1.000000
vn 0.000000 0.000000 1.000000
vn 0.000000 0.000000 1.000000
vn 0.000000 0.000000 1.000000
vn 0.000000 0.000000 1.000000
vn 0.000000 0.000000 1.000000
vn 0.000000 0.000000 1.000000
vn 0.000000 0.000000 1.000000
vn 0.000000 0.000000 1.000000
vn 0.000000 0.000000 1.000000
vn 0.000000 0.000000 1.000000
vn 0.000000 0.000000 1.000000
vn 0.000000 0.000000 1.000000
vn 0.000000 0.000000 1.000000
vn 0.000000 0.000000 1.000000
vn 0.000000 0.000000 1.000000
vn 0.000000 0.000000 1.000000
vn 0.000000 0.000000 1.000000
vn -0.993712 0.000054 -0.111964
vn -0.996976 0.000000 -0.077715
vn -0.943883 0.000061 -0.330279
vn -0.972897 -0.000030 -0.231239
vn -0.846724 0.000062 -0.532032
vn -0.910780 -0.000064 -0.412893
vn -0.707107 0.000036 -0.707107
vn -0.810343 -0.000026 -0.585956
vn -0.698243 0.000013 -0.715861
vn -0.532032 0.000053 -0.846724
vn -0.565624 -0.000011 -0.824663
vn -0.330279 0.000063 -0.943883
vn -0.416354 -0.000035 -0.909203
vn -0.111964 0.000046 -0.993712
vn -0.254817 -0.000032 -0.966989
vn -0.085778 0.000000 -0.996314
vn 0.996977 0.000000 -0.077703
vn 0.972892 -0.000030 -0.231261
vn 0.993713 0.000054 -0.111956
vn 0.910778 -0.000064 -0.412896
vn 0.943883 0.000061 -0.330280
vn 0.810349 -0.000026 -0.585948
vn 0.846718 0.000062 -0.532042
vn 0.565635 -0.000011 -0.824656
vn 0.698238 0.000013 -0.715865
vn 0.707110 0.000036 -0.707104
vn 0.416347 -0.000035 -0.909206
vn 0.532033 0.000053 -0.846724
vn 0.254815 -0.000032 -0.966990
vn 0.330276 0.000063 -0.943884
vn 0.085779 0.000000 -0.996314
vn 0.111965 0.000046 -0.993712
vn 0.000000 0.993713 -0.111956
vn 0.000000 0.993713 -0.111956
vn 0.000000 0.943883 -0.330280
vn 0.000000 0.943883 -0.330280
vn 0.000000 0.846718 -0.532042
vn 0.000000 0.846718 -0.532042
vn 0.000000 0.707110 -0.707104
vn 0.000000 0.707110 -0.707104
vn 0.000000 0.532033 -0.846724
vn 0.000000 0.532033 -0.846724
vn 0.000000 0.330276 -0.943884
vn 0.000000 0.330276 -0.943884
vn 0.000000 0.111965 -0.993712
vn 0.000000 0.111965 -0.993712
vn -0.464723 0.885456 0.000000
vn -0.464723 0.885456 0.000000
vn -0.239316 0.970942 0.000000
vn -0.239316 0.970942 0.000000
vn 0.992709 -0.120536 0.000000
vn 0.000000 1.000000 -0.000000
vn 0.992709 -0.120536 0.000000
vn 0.000000 1.000000 0.000000
vn 0.935016 -0.354605 0.000000
vn 0.239316 0.970942 -0.000000
vn 0.935016 -0.354605 0.000000
vn 0.239316 0.970942 0.000000
vn 0.822984 -0.568065 0.000000
vn 0.464723 0.885456 -0.000000
vn 0.464723 0.885456 0.000000
vn 0.822984 -0.568065 0.000000
vn 0.663123 -0.748511 0.000000
vn 0.663123 0.748511 -0.000000
vn 0.663123 0.748511 0.000000
vn 0.663123 -0.748511 0.000000
vn 0.464722 -0.885456 0.000000
vn 0.822984 0.568065 0.000000
vn 0.464722 -0.885456 0.000000
vn 0.822984 0.568065 -0.000000
vn 0.935016 0.354605 0.000000
vn 0.239316 -0.970942 0.000000
vn 0.935016 0.354605 -0.000000
vn 0.992709 0.120536 0.000000
vn 0.239316 -0.970942 0.000000
vn 0.992709 0.120536 -0.000000
vn 0.000000 -1.000000 0.000000
vn 0.000000 -1.000000 0.000000
vn -0.239316 -0.970942 0.000000
vn -0.239316 -0.970942 0.000000
vn -0.464722 -0.885456 0.000000
vn -0.464722 -0.885456 0.000000
vn -0.663123 -0.748511 0.000000
vn -0.663123 -0.748511 0.000000
vn -0.822984 -0.568065 0.000000
vn -0.822984 -0.568065 0.000000
vn -0.935016 -0.354605 0.000000
vn -0.935016 -0.354605 0.000000
vn -0.992709 -0.120536 0.000000
vn -0.992709 -0.120536 0.000000
vn -0.992709 0.120536 0.000000
vn -0.992709 0.120536 0.000000
vn -0.935016 0.354605 0.000000
vn -0.935016 0.354605 0.000000
vn -0.822984 0.568065 0.000000
vn -0.822984 0.568065 0.000000
vn -0.663123 0.748511 0.000000
vn -0.663123 0.748511 0.000000
vn -0.464726 0.885455 0.000000
vn -0.464726 0.885455 0.000000
vn -0.239314 0.970942 0.000000
vn -0.239314 0.970942 0.000000
vn 0.992709 -0.120539 0.000000
vn 0.000000 1.000000 -0.000000
vn 0.992709 -0.120539 0.000000
vn 0.000000 1.000000 0.000000
vn 0.935016 -0.354605 0.000000
vn 0.239314 0.970942 -0.000000
vn 0.935016 -0.354605 0.000000
vn 0.239314 0.970942 0.000000
vn 0.822985 -0.568063 0.000000
vn 0.464723 0.885456 -0.000000
vn 0.464723 0.885456 0.000000
vn 0.822985 -0.568063 0.000000
vn 0.663123 -0.748511 0.000000
vn 0.663123 0.748511 -0.000000
vn 0.663123 0.748511 0.000000
vn 0.663123 -0.748511 0.000000
vn 0.464723 -0.885456 0.000000
vn 0.822985 0.568063 0.000000
vn 0.464723 -0.885456 0.000000
vn 0.822985 0.568063 -0.000000
vn 0.935016 0.354605 0.000000
vn 0.239314 -0.970942 0.000000
vn 0.935016 0.354605 -0.000000
vn 0.992709 0.120539 0.000000
vn 0.239314 -0.970942 0.000000
vn 0.992709 0.120539 -0.000000
vn 0.000000 -1.000000 0.000000
vn 0.000000 -1.000000 0.000000
vn -0.239314 -0.970942 0.000000
vn -0.239314 -0.970942 0.000000
vn -0.464726 -0.885455 0.000000
vn -0.464726 -0.885455 0.000000
vn -0.663120 -0.748513 0.000000
vn -0.663120 -0.748513 0.000000
vn -0.822985 -0.568063 0.000000
vn -0.822985 -0.568063 0.000000
vn -0.935016 -0.354605 0.000000
vn -0.935016 -0.354605 0.000000
vn -0.992709 -0.120539 0.000000
vn -0.992709 -0.120539 0.000000
vn -0.992709 0.120539 0.000000
vn -0.992709 0.120539 0.000000
vn -0.935016 0.354605 0.000000
vn -0.935016 0.354605 0.000000
vn -0.822985 0.568063 0.000000
vn -0.822985 0.568063 0.000000
vn -0.663119 0.748514 0.000000
vn -0.663119 0.748514 0.000000
vn -1.000000 0.000000 0.000000
vn -1.000000 -0.000000 0.000000
vn -0.993712 0.000054 0.111965
vn -0.996976 0.000000 0.077715
vn -0.943883 0.000061 0.330279
vn -0.972897 -0.000030 0.231240
vn -0.846724 0.000062 0.532032
vn -0.910780 -0.000064 0.412892
vn -0.707107 0.000036 0.707107
vn -0.810343 -0.000026 0.585956
vn -0.698243 0.000013 0.715860
vn -0.532032 0.000053 0.846724
vn -0.565624 -0.000011 0.824664
vn -0.330279 0.000063 0.943883
vn -0.416353 -0.000035 0.909203
vn -0.111965 0.000046 0.993712
vn -0.254816 -0.000032 0.966989
vn -0.085778 0.000000 0.996314
vn 1.000000 -0.000000 0.000000
vn 1.000000 0.000000 0.000000
vn 0.996977 -0.000000 0.077703
vn 0.972892 -0.000030 0.231261
vn 0.993713 0.000054 0.111956
vn 0.910778 -0.000064 0.412896
vn 0.943883 0.000061 0.330280
vn 0.810348 -0.000026 0.585948
vn 0.846718 0.000062 0.532042
vn 0.565635 -0.000011 0.824656
vn 0.698239 0.000013 0.715865
vn 0.707109 0.000036 0.707104
vn 0.416346 -0.000035 0.909206
vn 0.532032 0.000053 0.846724
vn 0.254815 -0.000032 0.966990
vn 0.330277 0.000063 0.943884
vn 0.085779 0.000000 0.996314
vn 0.111966 0.000046 0.993712
vn 0.000000 0.993713 0.111956
vn -0.000000 0.993713 0.111956
vn 0.000000 0.943883 0.330280
vn -0.000000 0.943883 0.330280
vn 0.000000 0.846718 0.532042
vn -0.000000 0.846718 0.532042
vn 0.000000 0.707109 0.707104
vn -0.000000 0.707109 0.707104
vn 0.000000 0.532032 0.846724
vn -0.000000 0.532032 0.846724
vn 0.000000 0.330277 0.943884
vn -0.000000 0.330277 0.943884
vn 0.000000 0.111966 0.993712
vn -0.000000 0.111966 0.993712
vn -0.425089 0.585074 -0.690643
vn -0.127898 0.936131 -0.327568
vn -0.327144 0.934919 -0.137493
vn -0.175859 0.881163 -0.438891
vn -0.271305 0.834997 -0.478720
vn -0.179089 0.967396 -0.179089
vn -0.619816 0.315811 -0.718395
vn -0.585077 0.425088 -0.690641
vn -0.526536 0.837955 -0.143495
vn -0.445555 0.874461 -0.191828
vn -0.516061 0.710284 -0.478725
vn -0.411259 0.807150 -0.423526
vn -0.703368 0.102704 -0.703368
vn -0.846210 0.034833 -0.531709
vn -0.688154 0.137643 -0.712390
vn -0.687803 0.223479 -0.690640
vn -0.696408 0.696413 -0.173275
vn -0.837959 0.526525 -0.143513
vn -0.696425 0.696401 -0.173258
vn -0.710291 0.516063 -0.478713
vn -0.640568 0.640546 -0.423525
vn -0.936131 0.127899 -0.327567
vn -0.934920 0.327140 -0.137493
vn -0.967396 0.179090 -0.179088
vn -0.874456 0.445563 -0.191834
vn -0.881165 0.175859 -0.438887
vn -0.834999 0.271305 -0.478717
vn -0.807150 0.411268 -0.423519
vn -0.111261 0.987543 -0.111261
vn -0.987541 0.111270 -0.111269
vn 0.098409 0.328673 -0.939303
vn -0.125922 0.111074 -0.985802
vn -0.076378 0.235064 -0.968974
vn -0.093071 0.128094 -0.987385
vn -0.062009 0.531009 -0.845094
vn -0.169315 0.412113 -0.895263
vn -0.138788 0.427141 -0.893470
vn -0.111073 0.125926 -0.985802
vn -0.128096 0.093068 -0.987385
vn -0.263996 0.363339 -0.893471
vn -0.210434 0.413002 -0.886085
vn -0.102690 0.703371 -0.703366
vn -0.034823 0.846204 -0.531720
vn -0.137651 0.688148 -0.712394
vn -0.328676 -0.098393 -0.939303
vn -0.235073 0.076380 -0.968972
vn -0.327755 0.327758 -0.886088
vn -0.363343 0.263986 -0.893473
vn -0.315809 0.619813 -0.718399
vn -0.223477 0.687798 -0.690646
vn -0.531009 0.062000 -0.845095
vn -0.427137 0.138786 -0.893472
vn -0.412107 0.169314 -0.895265
vn -0.412997 0.210432 -0.886088
vn -0.491887 0.491892 -0.718394
vn 0.425091 0.585070 -0.690645
vn 0.127899 0.936131 -0.327568
vn 0.327141 0.934920 -0.137492
vn 0.175859 0.881162 -0.438892
vn 0.271302 0.834998 -0.478720
vn 0.179089 0.967396 -0.179088
vn 0.619811 0.315807 -0.718401
vn 0.585070 0.425091 -0.690645
vn 0.526537 0.837954 -0.143501
vn 0.445559 0.874459 -0.191831
vn 0.516067 0.710283 -0.478721
vn 0.411263 0.807150 -0.423523
vn 0.703371 0.102691 -0.703366
vn 0.846204 0.034823 -0.531720
vn 0.688148 0.137653 -0.712393
vn 0.687797 0.223475 -0.690647
vn 0.696412 0.696412 -0.173263
vn 0.837954 0.526537 -0.143501
vn 0.696412 0.696412 -0.173263
vn 0.710283 0.516067 -0.478721
vn 0.640556 0.640556 -0.423529
vn 0.936131 0.127899 -0.327568
vn 0.934920 0.327141 -0.137492
vn 0.967396 0.179089 -0.179088
vn 0.874459 0.445559 -0.191831
vn 0.881162 0.175859 -0.438892
vn 0.834998 0.271302 -0.478720
vn 0.807150 0.411263 -0.423523
vn 0.111262 0.987543 -0.111261
vn 0.987543 0.111262 -0.111261
vn -0.098411 0.328673 -0.939303
vn 0.125923 0.111074 -0.985802
vn 0.076378 0.235064 -0.968974
vn 0.093072 0.128094 -0.987385
vn 0.062010 0.531009 -0.845094
vn 0.169317 0.412112 -0.895263
vn 0.138789 0.427142 -0.893469
vn 0.111074 0.125923 -0.985802
vn 0.128094 0.093072 -0.987385
vn 0.263998 0.363338 -0.893471
vn 0.210434 0.413003 -0.886085
vn 0.102691 0.703371 -0.703366
vn 0.034823 0.846204 -0.531720
vn 0.137653 0.688148 -0.712394
vn 0.328673 -0.098411 -0.939303
vn 0.235064 0.076378 -0.968974
vn 0.327757 0.327757 -0.886088
vn 0.363338 0.263998 -0.893471
vn 0.315807 0.619811 -0.718401
vn 0.223475 0.687797 -0.690647
vn 0.531009 0.062010 -0.845094
vn 0.427142 0.138789 -0.893469
vn 0.412112 0.169317 -0.895263
vn 0.413003 0.210434 -0.886085
vn 0.491889 0.491889 -0.718395
vn 0.000000 1.000000 -0.000000
vn 0.000000 1.000000 0.000000
vn -0.111956 0.993713 0.000000
vn -0.111956 0.993713 0.000000
vn -0.330280 0.943883 0.000000
vn -0.330280 0.943883 0.000000
vn -0.532042 0.846718 0.000000
vn -0.532042 0.846718 0.000000
vn -0.707104 0.707110 0.000000
vn -0.707104 0.707110 0.000000
vn -0.846724 0.532033 0.000000
vn -0.846724 0.532033 0.000000
vn -0.943884 0.330276 0.000000
vn -0.943884 0.330276 0.000000
vn -0.993712 0.111965 0.000000
vn -0.993712 0.111965 0.000000
vn -0.425089 0.585074 0.690643
vn -0.127898 0.936131 0.327568
vn -0.327144 0.934919 0.137493
vn -0.175859 0.881163 0.438891
vn -0.271305 0.834997 0.478720
vn -0.179089 0.967396 0.179089
vn -0.619816 0.315811 0.718395
vn -0.585077 0.425088 0.690641
vn -0.526536 0.837955 0.143495
vn -0.445555 0.874461 0.191828
vn -0.516061 0.710284 0.478725
vn -0.411259 0.807150 0.423526
vn -0.703367 0.102704 0.703368
vn -0.846211 0.034833 0.531709
vn -0.688153 0.137643 0.712390
vn -0.687803 0.223479 0.690640
vn -0.696408 0.696414 0.173275
vn -0.837959 0.526525 0.143513
vn -0.696425 0.696401 0.173258
vn -0.710291 0.516063 0.478713
vn -0.640568 0.640546 0.423525
vn -0.936131 0.127899 0.327567
vn -0.934920 0.327140 0.137493
vn -0.967396 0.179090 0.179088
vn -0.874456 0.445563 0.191834
vn -0.881165 0.175859 0.438887
vn -0.834999 0.271305 0.478717
vn -0.807150 0.411268 0.423519
vn -0.111261 0.987543 0.111261
vn -0.987541 0.111270 0.111269
vn 0.098409 0.328674 0.939303
vn -0.125922 0.111074 0.985802
vn -0.076378 0.235064 0.968974
vn -0.093071 0.128094 0.987385
vn -0.062009 0.531009 0.845095
vn -0.169314 0.412113 0.895263
vn -0.138788 0.427141 0.893470
vn -0.111073 0.125926 0.985802
vn -0.128097 0.093068 0.987385
vn -0.263996 0.363339 0.893471
vn -0.210434 0.413002 0.886085
vn -0.102690 0.703371 0.703366
vn -0.034823 0.846204 0.531720
vn -0.137651 0.688148 0.712394
vn -0.328677 -0.098393 0.939303
vn -0.235073 0.076380 0.968972
vn -0.327755 0.327758 0.886088
vn -0.363343 0.263986 0.893473
vn -0.315809 0.619813 0.718399
vn -0.223477 0.687798 0.690646
vn -0.531008 0.062000 0.845095
vn -0.427137 0.138786 0.893472
vn -0.412107 0.169314 0.895266
vn -0.412997 0.210432 0.886088
vn -0.491887 0.491892 0.718394
vn 0.993713 0.111957 0.000000
vn 0.993713 0.111957 0.000000
vn 0.943884 0.330278 0.000000
vn 0.943884 0.330278 0.000000
vn 0.846717 0.532043 0.000000
vn 0.846717 0.532043 0.000000
vn 0.707107 0.707107 0.000000
vn 0.707107 0.707107 0.000000
vn 0.532043 0.846717 0.000000
vn 0.532043 0.846717 0.000000
vn 0.330278 0.943884 0.000000
vn 0.330278 0.943884 0.000000
vn 0.111957 0.993713 0.000000
vn 0.111957 0.993713 0.000000
vn 0.425091 0.585070 0.690645
vn 0.127899 0.936131 0.327568
vn 0.327141 0.934920 0.137492
vn 0.175859 0.881162 0.438892
vn 0.271302 0.834998 0.478720
vn 0.179089 0.967396 0.179088
vn 0.619811 0.315807 0.718401
vn 0.585070 0.425091 0.690645
vn 0.526537 0.837954 0.143501
vn 0.445559 0.874459 0.191831
vn 0.516067 0.710283 0.478721
vn 0.411263 0.807150 0.423523
vn 0.703371 0.102692 0.703366
vn 0.846204 0.034823 0.531720
vn 0.688148 0.137653 0.712394
vn 0.687797 0.223475 0.690648
vn 0.696412 0.696412 0.173263
vn 0.837954 0.526537 0.143501
vn 0.696412 0.696412 0.173263
vn 0.710283 0.516067 0.478721
vn 0.640556 0.640556 0.423529
vn 0.936131 0.127899 0.327568
vn 0.934920 0.327141 0.137492
vn 0.967396 0.179089 0.179088
vn 0.874459 0.445559 0.191831
vn 0.881162 0.175859 0.438892
vn 0.834998 0.271302 0.478720
vn 0.807150 0.411263 0.423523
vn 0.111262 0.987543 0.111261
vn 0.987543 0.111262 0.111261
vn -0.098411 0.328673 0.939302
vn 0.125924 0.111074 0.985802
vn 0.076378 0.235065 0.968974
vn 0.093072 0.128094 0.987385
vn 0.062010 0.531009 0.845094
vn 0.169317 0.412112 0.895263
vn 0.138789 0.427142 0.893469
vn 0.111074 0.125924 0.985802
vn 0.128094 0.093072 0.987385
vn 0.263998 0.363338 0.893471
vn 0.210434 0.413003 0.886085
vn 0.102692 0.703371 0.703366
vn 0.034823 0.846204 0.531720
vn 0.137653 0.688148 0.712394
vn 0.328673 -0.098411 0.939302
vn 0.235065 0.076378 0.968974
vn 0.327757 0.327757 0.886088
vn 0.363338 0.263998 0.893471
vn 0.315807 0.619811 0.718401
vn 0.223475 0.687797 0.690648
vn 0.531009 0.062010 0.845094
vn 0.427142 0.138789 0.893469
vn 0.412112 0.169317 0.895263
vn 0.413003 0.210434 0.886085
vn 0.491889 0.491889 0.718395
f 1//1 2//1 3//1
f 1//2 4//2 2//2
f 5//3 6//3 7//3
f 8//4 6//4 5//4
f 9//5 10//5 11//5
f 12//6 13//6 1//6
f 11//7 10//7 1//7
f 14//8 10//8 9//8
f 1//9 15//9 12//9
f 13//10 16//10 1//10
f 17//11 18//11 8//11
f 1//12 19//12 15//12
f 8//13 18//13 6//13
f 16//14 20//14 1//14
f 1//15 21//15 19//15
f 22//16 23//16 17//16
f 20//17 11//17 1//17
f 17//18 23//18 18//18
f 1//19 24//19 21//19
f 25//20 26//20 22//20
f 22//21 26//21 23//21
f 1//22 27//22 24//22
f 28//23 29//23 25//23
f 1//24 30//24 27//24
f 25//25 29//25 26//25
f 31//26 32//26 33//26
f 33//27 32//27 28//27
f 28//28 32//28 29//28
f 1//29 34//29 30//29
f 31//30 35//30 32//30
f 10//31 4//31 1//31
f 36//32 4//32 37//32
f 37//33 4//33 38//33
f 38//34 4//34 39//34
f 39//35 4//35 40//35
f 40//36 4//36 41//36
f 41//37 4//37 42//37
f 42//38 4//38 43//38
f 43//39 4//39 44//39
f 44//40 4//40 45//40
f 45//41 4//41 46//41
f 46//42 4//42 10//42
f 34//43 47//43 48//43
f 48//44 47//44 49//44
f 49//45 47//45 50//45
f 50//46 47//46 31//46
f 31//47 47//47 35//47
f 51//48 52//48 53//48
f 1//49 47//49 34//49
f 47//50 54//50 35//50
f 35//51 54//51 55//51
f 55//52 54//52 56//52
f 56//53 54//53 57//53
f 58//54 52//54 51//54
f 57//55 54//55 36//55
f 36//56 54//56 4//56
f 5//57 7//57 51//57
f 51//58 7//58 58//58
f 52//59 14//59 53//59
f 53//60 14//60 9//60
f 1//61 59//61 60//61
f 3//62 59//62 1//62
f 60//63 61//63 62//63
f 59//64 61//64 60//64
f 62//65 63//65 64//65
f 61//66 63//66 62//66
f 64//67 65//67 66//67
f 63//68 65//68 64//68
f 66//69 67//69 68//69
f 68//70 67//70 69//70
f 65//71 67//71 66//71
f 69//72 70//72 71//72
f 67//73 70//73 69//73
f 71//74 72//74 73//74
f 70//75 72//75 71//75
f 73//76 74//76 75//76
f 72//77 74//77 73//77
f 74//78 76//78 75//78
f 2//79 4//79 77//79
f 78//80 77//80 79//80
f 78//81 2//81 77//81
f 80//82 79//82 81//82
f 80//83 78//83 79//83
f 82//84 81//84 83//84
f 82//85 80//85 81//85
f 84//86 83//86 85//86
f 84//87 82//87 83//87
f 86//88 85//88 87//88
f 86//89 84//89 85//89
f 88//90 87//90 89//90
f 88//91 86//91 87//91
f 90//92 89//92 91//92
f 90//93 88//93 89//93
f 92//94 91//94 93//94
f 92//95 90//95 91//95
f 94//96 92//96 93//96
f 95//97 96//97 97//97
f 95//98 97//98 98//98
f 99//99 100//99 101//99
f 102//100 103//100 3//100
f 99//101 104//101 100//101
f 105//102 3//102 103//102
f 106//103 102//103 3//103
f 107//104 108//104 96//104
f 107//105 96//105 95//105
f 109//106 3//106 105//106
f 110//107 106//107 3//107
f 111//108 3//108 109//108
f 112//109 113//109 108//109
f 112//110 108//110 107//110
f 101//111 110//111 3//111
f 114//112 3//112 111//112
f 115//113 116//113 113//113
f 115//114 113//114 112//114
f 117//115 3//115 114//115
f 118//116 116//116 115//116
f 118//117 119//117 116//117
f 120//118 3//118 117//118
f 121//119 122//119 119//119
f 121//120 119//120 118//120
f 123//121 3//121 120//121
f 124//122 125//122 122//122
f 124//123 122//123 121//123
f 2//124 126//124 127//124
f 2//125 127//125 128//125
f 2//126 128//126 129//126
f 2//127 129//127 130//127
f 2//128 130//128 131//128
f 2//129 131//129 132//129
f 2//130 132//130 133//130
f 2//131 133//131 134//131
f 2//132 134//132 135//132
f 2//133 135//133 136//133
f 2//134 136//134 99//134
f 2//135 101//135 3//135
f 2//136 99//136 101//136
f 137//137 123//137 138//137
f 137//138 138//138 139//138
f 137//139 139//139 140//139
f 137//140 140//140 125//140
f 141//141 97//141 142//141
f 137//142 3//142 123//142
f 143//143 124//143 144//143
f 143//144 144//144 145//144
f 143//145 145//145 146//145
f 147//146 142//146 148//146
f 143//147 146//147 126//147
f 143//148 125//148 124//148
f 143//149 126//149 2//149
f 143//150 137//150 125//150
f 147//151 141//151 142//151
f 98//152 97//152 141//152
f 104//153 147//153 148//153
f 104//154 148//154 100//154
f 73//155 149//155 150//155
f 73//156 75//156 149//156
f 71//157 150//157 151//157
f 71//158 73//158 150//158
f 69//159 151//159 152//159
f 69//160 71//160 151//160
f 68//161 152//161 153//161
f 68//162 69//162 152//162
f 66//163 68//163 153//163
f 64//164 153//164 154//164
f 64//165 66//165 153//165
f 62//166 154//166 155//166
f 62//167 64//167 154//167
f 60//168 155//168 47//168
f 60//169 62//169 155//169
f 1//170 60//170 47//170
f 156//171 93//171 91//171
f 157//172 91//172 89//172
f 157//173 156//173 91//173
f 158//174 89//174 87//174
f 158//175 157//175 89//175
f 159//176 87//176 85//176
f 159//177 158//177 87//177
f 160//178 83//178 81//178
f 160//179 85//179 83//179
f 160//180 159//180 85//180
f 161//181 81//181 79//181
f 161//182 160//182 81//182
f 162//183 79//183 77//183
f 162//184 161//184 79//184
f 54//185 77//185 4//185
f 54//186 162//186 77//186
f 163//187 164//187 165//187
f 163//188 166//188 164//188
f 167//189 165//189 168//189
f 167//190 163//190 165//190
f 169//191 168//191 170//191
f 169//192 167//192 168//192
f 171//193 170//193 172//193
f 171//194 169//194 170//194
f 173//195 172//195 174//195
f 173//196 171//196 172//196
f 175//197 174//197 176//197
f 175//198 173//198 174//198
f 47//199 176//199 54//199
f 47//200 175//200 176//200
f 177//201 178//201 148//201
f 148//202 178//202 100//202
f 178//203 179//203 100//203
f 100//204 179//204 101//204
f 111//205 180//205 181//205
f 179//206 182//206 101//206
f 21//207 180//207 111//207
f 101//208 182//208 110//208
f 181//209 183//209 117//209
f 182//210 184//210 110//210
f 180//211 183//211 181//211
f 110//212 184//212 106//212
f 117//213 185//213 120//213
f 184//214 186//214 106//214
f 106//215 186//215 187//215
f 183//216 185//216 117//216
f 120//217 188//217 189//217
f 186//218 190//218 187//218
f 187//219 190//219 103//219
f 185//220 188//220 120//220
f 189//221 191//221 138//221
f 103//222 192//222 105//222
f 188//223 191//223 189//223
f 190//224 192//224 103//224
f 105//225 193//225 194//225
f 138//226 195//226 139//226
f 192//227 193//227 105//227
f 194//228 21//228 111//228
f 191//229 195//229 138//229
f 193//230 21//230 194//230
f 139//231 196//231 140//231
f 195//232 196//232 139//232
f 140//233 197//233 125//233
f 196//234 197//234 140//234
f 125//235 198//235 122//235
f 197//236 198//236 125//236
f 122//237 199//237 119//237
f 198//238 199//238 122//238
f 119//239 200//239 116//239
f 199//240 200//240 119//240
f 200//241 201//241 116//241
f 116//242 201//242 202//242
f 201//243 203//243 202//243
f 202//244 203//244 204//244
f 203//245 205//245 204//245
f 204//246 205//246 206//246
f 205//247 207//247 206//247
f 206//248 207//248 97//248
f 207//249 208//249 97//249
f 97//250 208//250 142//250
f 208//251 177//251 142//251
f 142//252 177//252 148//252
f 44//253 45//253 134//253
f 134//254 45//254 135//254
f 45//255 46//255 135//255
f 135//256 46//256 136//256
f 107//257 23//257 112//257
f 46//258 10//258 136//258
f 18//259 23//259 107//259
f 136//260 10//260 99//260
f 112//261 26//261 115//261
f 10//262 14//262 99//262
f 23//263 26//263 112//263
f 99//264 14//264 104//264
f 115//265 29//265 118//265
f 14//266 52//266 104//266
f 104//267 52//267 147//267
f 26//268 29//268 115//268
f 118//269 32//269 121//269
f 52//270 58//270 147//270
f 147//271 58//271 141//271
f 29//272 32//272 118//272
f 121//273 35//273 124//273
f 141//274 7//274 98//274
f 32//275 35//275 121//275
f 58//276 7//276 141//276
f 98//277 6//277 95//277
f 124//278 55//278 144//278
f 7//279 6//279 98//279
f 95//280 18//280 107//280
f 35//281 55//281 124//281
f 6//282 18//282 95//282
f 144//283 56//283 145//283
f 55//284 56//284 144//284
f 145//285 57//285 146//285
f 56//286 57//286 145//286
f 146//287 36//287 126//287
f 57//288 36//288 146//288
f 126//289 37//289 127//289
f 36//290 37//290 126//290
f 127//291 38//291 128//291
f 37//292 38//292 127//292
f 38//293 39//293 128//293
f 128//294 39//294 129//294
f 39//295 40//295 129//295
f 129//296 40//296 130//296
f 40//297 41//297 130//297
f 130//298 41//298 131//298
f 41//299 42//299 131//299
f 131//300 42//300 132//300
f 42//301 43//301 132//301
f 132//302 43//302 133//302
f 43//303 44//303 133//303
f 133//304 44//304 134//304
f 149//305 75//305 209//305
f 209//306 75//306 76//306
f 209//307 74//307 210//307
f 76//308 74//308 209//308
f 210//309 72//309 211//309
f 74//310 72//310 210//310
f 211//311 70//311 212//311
f 72//312 70//312 211//312
f 212//313 67//313 213//313
f 70//314 67//314 212//314
f 67//315 65//315 213//315
f 213//316 63//316 214//316
f 65//317 63//317 213//317
f 214//318 61//318 215//318
f 63//319 61//319 214//319
f 215//320 59//320 137//320
f 61//321 59//321 215//321
f 59//322 3//322 137//322
f 94//323 156//323 216//323
f 93//324 156//324 94//324
f 94//325 216//325 92//325
f 92//326 217//326 90//326
f 216//327 217//327 92//327
f 90//328 218//328 88//328
f 217//329 218//329 90//329
f 88//330 219//330 86//330
f 218//331 219//331 88//331
f 84//332 220//332 82//332
f 86//333 220//333 84//333
f 219//334 220//334 86//334
f 82//335 221//335 80//335
f 220//336 221//336 82//336
f 80//337 222//337 78//337
f 221//338 222//338 80//338
f 78//339 143//339 2//339
f 222//340 143//340 78//340
f 223//341 224//341 225//341
f 226//342 224//342 223//342
f 225//343 227//343 228//343
f 224//344 227//344 225//344
f 228//345 229//345 230//345
f 227//346 229//346 228//346
f 230//347 231//347 232//347
f 229//348 231//348 230//348
f 232//349 233//349 234//349
f 231//350 233//350 232//350
f 234//351 235//351 236//351
f 233//352 235//352 234//352
f 236//353 137//353 143//353
f 235//354 137//354 236//354
f 237//355 238//355 239//355
f 240//356 163//356 167//356
f 240//357 241//357 242//357
f 240//358 167//358 243//358
f 240//359 243//359 238//359
f 240//360 242//360 163//360
f 244//361 245//361 246//361
f 244//362 237//362 245//362
f 247//363 248//363 241//363
f 247//364 241//364 240//364
f 247//365 238//365 237//365
f 247//366 240//366 238//366
f 249//367 153//367 152//367
f 249//368 152//368 151//368
f 249//369 246//369 153//369
f 249//370 244//370 246//370
f 250//371 251//371 248//371
f 250//372 252//372 251//372
f 250//373 248//373 247//373
f 250//374 237//374 244//374
f 250//375 247//375 237//375
f 253//376 151//376 150//376
f 253//377 254//377 252//377
f 253//378 150//378 254//378
f 253//379 252//379 250//379
f 253//380 249//380 151//380
f 253//381 244//381 249//381
f 253//382 250//382 244//382
f 242//383 166//383 163//383
f 149//384 254//384 150//384
f 255//385 173//385 175//385
f 256//386 175//386 47//386
f 256//387 255//387 175//387
f 257//388 256//388 47//388
f 258//389 171//389 173//389
f 258//390 173//390 255//390
f 258//391 255//391 256//391
f 259//392 47//392 155//392
f 259//393 257//393 47//393
f 239//394 256//394 257//394
f 239//395 258//395 256//395
f 243//396 169//396 171//396
f 243//397 167//397 169//397
f 243//398 171//398 258//398
f 260//399 155//399 154//399
f 260//400 259//400 155//400
f 245//401 239//401 257//401
f 245//402 257//402 259//402
f 238//403 258//403 239//403
f 238//404 243//404 258//404
f 246//405 154//405 153//405
f 246//406 259//406 260//406
f 246//407 260//407 154//407
f 246//408 245//408 259//408
f 237//409 239//409 245//409
f 261//410 262//410 263//410
f 165//411 264//411 168//411
f 265//412 264//412 266//412
f 168//413 264//413 267//413
f 267//414 264//414 261//414
f 266//415 264//415 165//415
f 268//416 269//416 270//416
f 262//417 269//417 268//417
f 271//418 272//418 265//418
f 265//419 272//419 264//419
f 261//420 272//420 262//420
f 264//421 272//421 261//421
f 160//422 273//422 159//422
f 159//423 273//423 158//423
f 270//424 273//424 160//424
f 269//425 273//425 270//425
f 274//426 275//426 271//426
f 276//427 275//427 274//427
f 271//428 275//428 272//428
f 262//429 275//429 269//429
f 272//430 275//430 262//430
f 158//431 277//431 157//431
f 278//432 277//432 276//432
f 157//433 277//433 278//433
f 276//434 277//434 275//434
f 273//435 277//435 158//435
f 269//436 277//436 273//436
f 275//437 277//437 269//437
f 164//438 266//438 165//438
f 278//439 156//439 157//439
f 174//440 279//440 176//440
f 176//441 280//441 54//441
f 279//442 280//442 176//442
f 280//443 281//443 54//443
f 172//444 282//444 174//444
f 174//445 282//445 279//445
f 279//446 282//446 280//446
f 54//447 283//447 162//447
f 281//448 283//448 54//448
f 280//449 263//449 281//449
f 282//450 263//450 280//450
f 170//451 267//451 172//451
f 168//452 267//452 170//452
f 172//453 267//453 282//453
f 162//454 284//454 161//454
f 283//455 284//455 162//455
f 263//456 268//456 281//456
f 281//457 268//457 283//457
f 282//458 261//458 263//458
f 267//459 261//459 282//459
f 161//460 270//460 160//460
f 283//461 270//461 284//461
f 284//462 270//462 161//462
f 268//463 270//463 283//463
f 263//464 262//464 268//464
f 164//465 166//465 223//465
f 223//466 166//466 226//466
f 285//467 226//467 166//467
f 285//468 166//468 242//468
f 286//469 242//469 241//469
f 286//470 285//470 242//470
f 287//471 241//471 248//471
f 287//472 286//472 241//472
f 288//473 248//473 251//473
f 288//474 287//474 248//474
f 289//475 251//475 252//475
f 289//476 288//476 251//476
f 290//477 252//477 254//477
f 290//478 289//478 252//478
f 209//479 254//479 149//479
f 209//480 290//480 254//480
f 291//481 292//481 293//481
f 224//482 294//482 227//482
f 286//483 294//483 285//483
f 227//484 294//484 295//484
f 295//485 294//485 291//485
f 285//486 294//486 224//486
f 296//487 297//487 298//487
f 292//488 297//488 296//488
f 287//489 299//489 286//489
f 286//490 299//490 294//490
f 291//491 299//491 292//491
f 294//492 299//492 291//492
f 213//493 300//493 212//493
f 212//494 300//494 211//494
f 298//495 300//495 213//495
f 297//496 300//496 298//496
f 288//497 301//497 287//497
f 289//498 301//498 288//498
f 287//499 301//499 299//499
f 292//500 301//500 297//500
f 299//501 301//501 292//501
f 211//502 302//502 210//502
f 290//503 302//503 289//503
f 210//504 302//504 290//504
f 289//505 302//505 301//505
f 300//506 302//506 211//506
f 297//507 302//507 300//507
f 301//508 302//508 297//508
f 226//509 285//509 224//509
f 290//510 209//510 210//510
f 233//511 303//511 235//511
f 235//512 304//512 137//512
f 303//513 304//513 235//513
f 304//514 305//514 137//514
f 231//515 306//515 233//515
f 233//516 306//516 303//516
f 303//517 306//517 304//517
f 137//518 307//518 215//518
f 305//519 307//519 137//519
f 304//520 293//520 305//520
f 306//521 293//521 304//521
f 229//522 295//522 231//522
f 227//523 295//523 229//523
f 231//524 295//524 306//524
f 215//525 308//525 214//525
f 307//526 308//526 215//526
f 293//527 296//527 305//527
f 305//528 296//528 307//528
f 306//529 291//529 293//529
f 295//530 291//530 306//530
f 214//531 298//531 213//531
f 307//532 298//532 308//532
f 308//533 298//533 214//533
f 296//534 298//534 307//534
f 293//535 292//535 296//535
f 309//536 216//536 156//536
f 309//537 156//537 278//537
f 310//538 278//538 276//538
f 310//539 309//539 278//539
f 311//540 276//540 274//540
f 311//541 310//541 276//541
f 312//542 274//542 271//542
f 312//543 311//543 274//543
f 313//544 271//544 265//544
f 313//545 312//545 271//545
f 314//546 265//546 266//546
f 314//547 313//547 265//547
f 223//548 266//548 164//548
f 223//549 314//549 266//549
f 315//550 316//550 317//550
f 318//551 225//551 228//551
f 318//552 313//552 314//552
f 318//553 228//553 319//553
f 318//554 319//554 316//554
f 318//555 314//555 225//555
f 320//556 321//556 322//556
f 320//557 315//557 321//557
f 323//558 312//558 313//558
f 323//559 313//559 318//559
f 323//560 316//560 315//560
f 323//561 318//561 316//561
f 324//562 220//562 219//562
f 324//563 219//563 218//563
f 324//564 322//564 220//564
f 324//565 320//565 322//565
f 325//566 311//566 312//566
f 325//567 310//567 311//567
f 325//568 312//568 323//568
f 325//569 315//569 320//569
f 325//570 323//570 315//570
f 326//571 218//571 217//571
f 326//572 309//572 310//572
f 326//573 217//573 309//573
f 326//574 310//574 325//574
f 326//575 324//575 218//575
f 326//576 320//576 324//576
f 326//577 325//577 320//577
f 314//578 223//578 225//578
f 216//579 309//579 217//579
f 327//580 234//580 236//580
f 328//581 236//581 143//581
f 328//582 327//582 236//582
f 329//583 328//583 143//583
f 330//584 232//584 234//584
f 330//585 234//585 327//585
f 330//586 327//586 328//586
f 331//587 143//587 222//587
f 331//588 329//588 143//588
f 317//589 328//589 329//589
f 317//590 330//590 328//590
f 319//591 230//591 232//591
f 319//592 228//592 230//592
f 319//593 232//593 330//593
f 332//594 222//594 221//594
f 332//595 331//595 222//595
f 321//596 317//596 329//596
f 321//597 329//597 331//597
f 316//598 330//598 317//598
f 316//599 319//599 330//599
f 322//600 221//600 220//600
f 322//601 331//601 332//601
f 322//602 332//602 221//602
f 322//603 321//603 331//603
f 315//604 317//604 321//604
